\relax 
\citation{wachsmuth-etal-2017-building}
\citation{stab2018argumentext}
\@writefile{toc}{\contentsline {title}{Argument Retrieval - Supporting Argumentative Conversations}{1}}
\@writefile{toc}{\authcount {3}}
\@writefile{toc}{\contentsline {author}{Maximilian Bundesmann \and Lukas Christ \and Matthias Richter}{1}}
\@writefile{toc}{\contentsline {section}{\numberline {1}Introduction}{1}}
\citation{rinott-etal-2015-show}
\citation{stein:2019j}
\citation{ajjour2019data}
\citation{wachsmuth-etal-2017-building}
\@writefile{toc}{\contentsline {section}{\numberline {2}Related Work}{2}}
\@writefile{toc}{\contentsline {section}{\numberline {3}Methods}{2}}
\citation{wachsmuth2017computational}
\citation{wei2016post}
\citation{persing2017can}
\citation{stein:2019j}
\citation{wachsmuth2017computational}
\@writefile{lof}{\contentsline {figure}{\numberline {1}{\ignorespaces All components of the introduced pipeline can be changed independently.}}{3}}
\newlabel{fig_architecture_overview}{{1}{3}}
\@writefile{toc}{\contentsline {subsection}{\numberline {3.1}Preprocessing}{3}}
\@writefile{toc}{\contentsline {subsubsection}{Related Work}{3}}
\citation{wei2016post}
\citation{wachsmuth2017computational}
\citation{wei2016post}
\citation{persing2017can}
\citation{persing2017can}
\citation{hutto2014vader}
\citation{persing2017can}
\@writefile{toc}{\contentsline {subsubsection}{Methods}{4}}
\citation{brysbaert2014concreteness}
\citation{warriner2013norms}
\citation{warriner2013norms}
\citation{brysbaert2014concreteness}
\citation{warriner2013norms}
\citation{stein:2019j}
\@writefile{lot}{\contentsline {table}{\numberline {1}{\ignorespaces Only documents that fulfill these conditions are kept}}{5}}
\newlabel{arg_rule_tab}{{1}{5}}
\@writefile{toc}{\contentsline {subsubsection}{Results}{5}}
\citation{wachsmuth-etal-2017-building}
\citation{stab2018argumentext}
\citation{stein:2019j}
\@writefile{lot}{\contentsline {table}{\numberline {2}{\ignorespaces Mean Squared Errors (MSE) of different models for rhetorical quality (r) and combined quality (c)}}{6}}
\newlabel{res_table}{{2}{6}}
\@writefile{toc}{\contentsline {subsection}{\numberline {3.2}Retrieval Model}{6}}
\newlabel{sec_retrieval}{{3.2}{6}}
\@writefile{toc}{\contentsline {subsubsection}{Related Work}{6}}
\citation{moraes2017ictir-a}
\@writefile{lof}{\contentsline {figure}{\numberline {2}{\ignorespaces Distributions of ratings produced by ensemble classifier ($q_{ens}$) and SVR classifier ($q_{svr}$)}}{7}}
\newlabel{dist}{{2}{7}}
\@writefile{toc}{\contentsline {subsubsection}{Methods}{7}}
\citation{carpineto2012survey}
\citation{diaz2016query}
\citation{zuccon2015integrating}
\citation{diaz2016query}
\@writefile{toc}{\contentsline {subsection}{\numberline {3.3}Query Expansion}{8}}
\@writefile{toc}{\contentsline {subsubsection}{Related Work}{8}}
\@writefile{toc}{\contentsline {subsubsection}{Methods}{8}}
\citation{zuccon2015integrating}
\@writefile{toc}{\contentsline {subsection}{\numberline {3.4}Clustering and Reranking}{9}}
\@writefile{toc}{\contentsline {subsubsection}{Motivation}{9}}
\citation{carbonell1998use}
\citation{kaptein2009result}
\citation{deselaers2009jointly}
\citation{zhu2007improving}
\citation{clarke2008novelty}
\citation{deerwester1990indexing}
\@writefile{lot}{\contentsline {table}{\numberline {3}{\ignorespaces Similarity matrix (first two rows) of 8 top documents $d_1,...,d_8$ returned by DPH for the query ``speed limit". }}{10}}
\newlabel{exp}{{3}{10}}
\@writefile{toc}{\contentsline {subsubsection}{Related Work}{10}}
\@writefile{toc}{\contentsline {subsubsection}{Methods}{10}}
\citation{deselaers2009jointly}
\citation{stein:2019j}
\newlabel{cls}{{8}{11}}
\@writefile{lot}{\contentsline {table}{\numberline {4}{\ignorespaces Examples for reranking on a dummy subset of the argsme corpus, for different values of $\gamma $ in Equation 8\hbox {}. In Brackets the dummy quality value for each ``argument".}}{11}}
\newlabel{cluster_example}{{4}{11}}
\citation{10.1145/582415.582418}
\@writefile{toc}{\contentsline {section}{\numberline {4}Evaluation and Results}{12}}
\@writefile{toc}{\contentsline {subsection}{\numberline {4.1}Experimental Setup}{12}}
\@writefile{toc}{\contentsline {subsection}{\numberline {4.2}Discussion}{12}}
\@writefile{lof}{\contentsline {figure}{\numberline {3}{\ignorespaces Results of the a) relevance and b) combined relevance evaluation.}}{13}}
\newlabel{evaluation_results}{{3}{13}}
\citation{stein:2019j}
\@writefile{lot}{\contentsline {table}{\numberline {5}{\ignorespaces Results of the evaluation through tira.io}}{14}}
\newlabel{tira-results}{{5}{14}}
\@writefile{toc}{\contentsline {section}{\numberline {5}Conclusion and Outlook}{14}}
\bibstyle{splncs04}
\bibdata{bib}
\bibcite{ajjour2019data}{1}
\bibcite{brysbaert2014concreteness}{2}
\bibcite{carbonell1998use}{3}
\bibcite{carpineto2012survey}{4}
\bibcite{clarke2008novelty}{5}
\bibcite{deerwester1990indexing}{6}
\bibcite{deselaers2009jointly}{7}
\bibcite{diaz2016query}{8}
\bibcite{hutto2014vader}{9}
\bibcite{10.1145/582415.582418}{10}
\bibcite{kaptein2009result}{11}
\bibcite{moraes2017ictir-a}{12}
\bibcite{persing2017can}{13}
\bibcite{stein:2019j}{14}
\bibcite{rinott-etal-2015-show}{15}
\bibcite{stab2018argumentext}{16}
\bibcite{wachsmuth2017computational}{17}
\bibcite{wachsmuth-etal-2017-building}{18}
\bibcite{warriner2013norms}{19}
\bibcite{wei2016post}{20}
\bibcite{zhu2007improving}{21}
\bibcite{zuccon2015integrating}{22}
